{"Hyderabad":{"10":[1667,503,17.234325,78.434908],"1":[428,508,17.234280, 78.427764],"2":[573,506,17.234299, 78.428603],"3":[726,522,17.234200, 78.429476],"4":[840,503,17.234317, 78.430134],"5":[916,493,17.234359, 78.430575],"6":[1006,492,17.234365, 78.431099],"7":[1071,490,17.234372, 78.431469],"8":[1571,126,17.236387, 78.434345],"9":[1035,685,17.233314, 78.431257]},
"HyderabadR":{"1":[131,195,17.236194,78.435846],"2":[136,627,17.233918,78.435887] ,"3":[939,198,17.236164, 78.440294],"4":[896,701,17.233550, 78.440063]},
"HyderabadL_old":{"1":[178,114,17.236989, 78.418765],"2":[361,834,17.233861, 78.419604],"3":[852,208,17.236573, 78.421836],"4":[1628,631,17.234756, 78.425332]},
"HyderabadL":{"1":[585,179,17.235448,78.421870],"2":[1241,196,17.235370,78.425218],"3":[1274,669,17.233073,78.425386],"4":[58,850,17.232192,78.419174]},
"HyderabadZoomOut1":{"1":[322,248,17.24734,78.39991],"2":[1561,470,17.23453,78.47319],"3":[955,573,17.22914,78.43728]},
"HyderabadZoomOut2":{"1":[464,100,17.61014,78.02601],"2":[1432,181,17.54235,78.91511]},
"Delhi":{"1":[1027,747,28.553522,77.085070],"2":[707,251,28.556477,77.082911],"3":[1027,747,28.553522,77.085070],"4":[707,251,28.556477,77.082911]},
"DelhiL":{"1":[348,127,28.562173,77.081154],"2":[811,797,28.558572,77.083973],"3":[348,127,28.562173,77.081154],"4":[811,797,28.558572,77.083973]},
"DelhiR":{"1":[958,68,28.552560, 77.087473],"2":[1289,597,28.549726,77.089495],"3":[958,68,28.552560, 77.087473],"4":[1289,597,28.549726,77.089495]},
"DelhiZoomOut1":{"1":[280,351,28.558495,77.083855],"2":[860,297,28.559494,77.096257],"3":[980,718,28.551539,77.098832],"4":[335,640,28.553012,77.085023]}
}